{
  "Comment.nvim": { "branch": "master", "commit": "0236521ea582747b58869cb72f70ccfa967d2e89" },
  "FTerm.nvim": { "branch": "master", "commit": "d1320892cc2ebab472935242d9d992a2c9570180" },
  "LuaSnip": { "branch": "master", "commit": "a7a4b4682c4b3e2ba82b82a4e6e5f5a0e79dec32" },
  "autoclose.nvim": { "branch": "main", "commit": "dc42806540dcf448ecb2bad6b67204410cfbe629" },
  "barbecue": { "branch": "main", "commit": "cd7e7da622d68136e13721865b4d919efd6325ed" },
  "chezmoi.vim": { "branch": "main", "commit": "a35b426db9d83f8fcf43981f299ad3145d001af2" },
  "cmp-buffer": { "branch": "main", "commit": "3022dbc9166796b644a841a02de8dd1cc1d311fa" },
  "cmp-nvim-lsp": { "branch": "main", "commit": "5af77f54de1b16c34b23cba810150689a3a90312" },
  "cmp-nvim-lua": { "branch": "main", "commit": "f12408bdb54c39c23e67cab726264c10db33ada8" },
  "cmp-path": { "branch": "main", "commit": "91ff86cd9c29299a64f968ebb45846c485725f23" },
  "darcula-solid.nvim": { "branch": "main", "commit": "d950b9ca20096313c435a93e57af7815766f3d3d" },
  "dressing.nvim": { "branch": "master", "commit": "6f212262061a2120e42da0d1e87326e8a41c0478" },
  "flit.nvim": { "branch": "main", "commit": "94419242ba07170b0009514d745e617b120964f4" },
  "gitsigns.nvim": { "branch": "main", "commit": "2c2463dbd82eddd7dbab881c3a62cfbfbe3c67ae" },
  "lazy.nvim": { "branch": "main", "commit": "83493db50a434a4c5c648faf41e2ead80f96e478" },
  "leap.nvim": { "branch": "main", "commit": "bf5d64f072a74968191f9994b0c05fac64f5f015" },
  "lspkind.nvim": { "branch": "master", "commit": "1735dd5a5054c1fb7feaf8e8658dbab925f4f0cf" },
  "lspsaga.nvim": { "branch": "main", "commit": "b4e80c2da41ebe8721dd4f30442edcb903db69ea" },
  "lualine.nvim": { "branch": "master", "commit": "8b56462bfb746760465264de41b4907310f113ec" },
  "lush.nvim": { "branch": "main", "commit": "2e8d34e748642621d761a65e3c2a198154b914e8" },
  "mason-lspconfig.nvim": { "branch": "main", "commit": "55716a879568a498fa236593c8119789054a3b8e" },
  "mason-registry": { "branch": "master", "commit": "190d23e51c5c3933bfde7abca5c9b101ccd918d3" },
  "mason.nvim": { "branch": "main", "commit": "3b5068f0fc565f337d67a2d315d935f574848ee7" },
  "noice.nvim": { "branch": "main", "commit": "bf67d70bd7265d075191e7812d8eb42b9791f737" },
  "none-ls.nvim": { "branch": "main", "commit": "ff3819c52ca04232fb70fbd6c1639de9abcbe122" },
  "nui.nvim": { "branch": "main", "commit": "756c59f46057cd2d43619cd3a6d4e01b2aa60295" },
  "nvim-cmp": { "branch": "main", "commit": "04e0ca376d6abdbfc8b52180f8ea236cbfddf782" },
  "nvim-colorizer.lua": { "branch": "master", "commit": "36c610a9717cc9ec426a07c8e6bf3b3abcb139d6" },
  "nvim-cursorline": { "branch": "main", "commit": "2532d97b21ffa7d6f287621c8c663a8229919f95" },
  "nvim-hlslens": { "branch": "main", "commit": "e4c811a401b06f86a7bb042b1d64a5cba21729a9" },
  "nvim-lspconfig": { "branch": "master", "commit": "99330586c6e1912c890fc39d19d97571fde660cd" },
  "nvim-navic": { "branch": "master", "commit": "8649f694d3e76ee10c19255dece6411c29206a54" },
  "nvim-neoclip.lua": { "branch": "main", "commit": "798cd0592a81c185465db3a091a0ff8a21af60fd" },
  "nvim-notify": { "branch": "master", "commit": "5371f4bfc1f6d3adf4fe9d62cd3a9d44356bfd15" },
  "nvim-treesitter": { "branch": "master", "commit": "488bec03254207b1dd071be8cb1fb78434b6e777" },
  "nvim-ts-autotag": { "branch": "main", "commit": "531f48334c422222aebc888fd36e7d109cb354cd" },
  "nvim-ts-context-commentstring": { "branch": "main", "commit": "7ab799a9792f7cf3883cf28c6a00ad431f3d382a" },
  "nvim-ufo": { "branch": "main", "commit": "239ae620d818ffa1319ca3056546df71906d4bfb" },
  "nvim-web-devicons": { "branch": "master", "commit": "75df79feb02d5e0ec114e447453775d4d291ea03" },
  "nvim_context_vt": { "branch": "master", "commit": "8f7b6b46292e0819290b0d368abc3366b8a163fc" },
  "plenary.nvim": { "branch": "master", "commit": "f7adfc4b3f4f91aab6caebf42b3682945fbc35be" },
  "promise-async": { "branch": "main", "commit": "93540c168c5ed2b030ec3e6c40ab8bbb85e36355" },
  "rustaceanvim": { "branch": "master", "commit": "5dc35a075ad7c9d2f6493065e1e5970e4ad61504" },
  "telescope-github.nvim": { "branch": "master", "commit": "ee95c509901c3357679e9f2f9eaac3561c811736" },
  "telescope-node-modules.nvim": { "branch": "main", "commit": "b846d33ff5763176dc14fc74c30941a2067c82fd" },
  "telescope.nvim": { "branch": "master", "commit": "7472420f8734c710bd7009081cef9b97f08a3821" },
  "todo-comments.nvim": { "branch": "main", "commit": "833d8dd8b07eeda37a09e99460f72a02616935cb" },
  "trouble.nvim": { "branch": "main", "commit": "f1168feada93c0154ede4d1fe9183bf69bac54ea" },
  "vim-characterize": { "branch": "master", "commit": "7fc5b75e7a9e46676cf736b56d99dd32004ff3d6" },
  "vim-fat-finger": { "branch": "master", "commit": "e81e5a6edec484882830a64a26cefb4bfc1366c0" },
  "vim-fugitive": { "branch": "master", "commit": "41beedabc7e948c787ea5696e04c3544c3674e23" },
  "vim-magnum": { "branch": "master", "commit": "7a30761b935d72bada5bbe90162a6afdb77c858d" },
  "vim-radical": { "branch": "master", "commit": "95ad54adf048dfadf54a49ba1a0c906b689f89dd" },
  "vim-repeat": { "branch": "master", "commit": "24afe922e6a05891756ecf331f39a1f6743d3d5a" },
  "vim-sayonara": { "branch": "master", "commit": "75c73f3cf3e96f8c09db5291970243699aadc02c" },
  "vim-speeddating": { "branch": "master", "commit": "5a36fd29df63ea3f65562bd2bb837be48a5ec90b" },
  "vim-surround": { "branch": "master", "commit": "3d188ed2113431cf8dac77be61b842acb64433d9" },
  "which-key.nvim": { "branch": "main", "commit": "4433e5ec9a507e5097571ed55c02ea9658fb268a" }
}